﻿[
  {"period": "2019/06", "value": 3.28},
  {"period": "2019/05", "value": 3.32},
  {"period": "2019/04", "value": 2.83},
  {"period": "2019/03", "value": 2.48},
  {"period": "2019/02", "value": 2.57},
  {"period": "2019/01", "value": 2.82},
  {"period": "2018/12", "value": 3.13},
  {"period": "2018/11", "value": 3.23},
  {"period": "2018/10", "value": 3.16},
  {"period": "2018/09", "value": 2.88},
  {"period": "2018/08", "value": 3.20},
  {"period": "2018/07", "value": 3.18}
]
