[
    {
        "key" : "SDG labour market indicators",
        "title" : "SDG labour market indicators",
        "type" : "category",
        "children" : [
            {
                "key" : "Goal 1: End poverty in all its forms everywhere",
                "title" : "Goal 1: End poverty in all its forms everywhere",
                "type" : "category",
                "children" : [
                    {
                        "key" : "https://www.ilo.org/ilostat/faces/oracle/webcenter/portalapp/pagehierarchy/Page27.jspx?subject=SDG&indicator=SDG_0111_SEX_AGE_RT&datasetCode=A&collectionCode=SDG",
                        "title" : "[1.1.1] Working poverty rate (percentage of employed living below US$1.90 PPP)",
                        "type" : "data"
                    },
                    {
                        "key" : "https://www.ilo.org/ilostat/faces/oracle/webcenter/portalapp/pagehierarchy/Page27.jspx?subject=SDG&indicator=SDG_0131_SEX_SOC_RT&datasetCode=A&collectionCode=SDG",
                        "title" : "[1.3.1] Proportion of population covered by social protection floors/systems",
                        "type" : "data"
                    }
                ]
            },
            {
                "key" : "Goal 5. Achieve gender equality and empower all women and girls",
                "title" : "Goal 5. Achieve gender equality and empower all women and girls",
                "type" : "category",
                "children" : [
                    {
                        "key" : "https://www.ilo.org/ilostat/faces/oracle/webcenter/portalapp/pagehierarchy/Page27.jspx?subject=SDG&indicator=SDG_0552_OCU_RT&datasetCode=A&collectionCode=SDG",
                        "title" : "[5.5.2] Female share of employment in managerial positions",
                        "type" : "data"
                    }
                ]
            },
            {
                "key" : "Goal 8. Promote sustained, inclusive and sustainable economic growth, full and productive employment and decent work for all",
                "title" : "Goal 8. Promote sustained, inclusive and sustainable economic growth, full and productive employment and decent work for all",
                "type" : "category",
                "children" : [
                    {
                        "key" : "https://www.ilo.org/ilostat/faces/oracle/webcenter/portalapp/pagehierarchy/Page27.jspx?subject=SDG&indicator=SDG_0821_NOC_RT&datasetCode=A&collectionCode=SDG",
                        "title" : "[8.2.1] Annual growth rate of output per worker (measured as GDP in constant 2011 international $ in PPP)",
                        "type" : "data"
                    },
                    {
                        "key" : "https://www.ilo.org/ilostat/faces/oracle/webcenter/portalapp/pagehierarchy/Page27.jspx?subject=SDG&indicator=SDG_A831_SEX_RT&datasetCode=A&collectionCode=SDG",
                        "title" : "[8.3.1] Proportion of informal employment in non-agricultural employment",
                        "type" : "data"
                    },
                    {
                        "key" : "https://www.ilo.org/ilostat/faces/oracle/webcenter/portalapp/pagehierarchy/Page27.jspx?subject=SDG&indicator=SDG_B831_SEX_RT&datasetCode=A&collectionCode=SDG",
                        "title" : "[8.3.1] Proportion of informal employment in non-agricultural employment -- Harmonized series",
                        "type" : "data"
                    },
                    {
                        "key" : "https://www.ilo.org/ilostat/faces/oracle/webcenter/portalapp/pagehierarchy/Page27.jspx?subject=SDG&indicator=SDG_0851_SEX_OCU_NB&datasetCode=A&collectionCode=SDG",
                        "title" : "[8.5.1] Average hourly earnings of female and male employees",
                        "type" : "data"
                    },
                    {
                        "key" : "https://www.ilo.org/ilostat/faces/oracle/webcenter/portalapp/pagehierarchy/Page27.jspx?subject=SDG&indicator=SDG_0852_SEX_AGE_RT&datasetCode=A&collectionCode=SDG",
                        "title" : "[8.5.2] Unemployment rate",
                        "type" : "data"
                    },
                    {
                        "key" : "https://www.ilo.org/ilostat/faces/oracle/webcenter/portalapp/pagehierarchy/Page27.jspx?subject=SDG&indicator=SDG_0852_SEX_DSB_RT&datasetCode=A&collectionCode=SDG",
                        "title" : "[8.5.2] Unemployment rate by disability status",
                        "type" : "data"
                    },
                    {
                        "key" : "https://www.ilo.org/ilostat/faces/oracle/webcenter/portalapp/pagehierarchy/Page27.jspx?subject=SDG&indicator=SDG_0861_SEX_RT&datasetCode=A&collectionCode=SDG",
                        "title" : "[8.6.1] Proportion of youth (aged 15-24 years) not in education, employment or training",
                        "type" : "data"
                    },
                    {
                        "key" : "https://www.ilo.org/ilostat/faces/oracle/webcenter/portalapp/pagehierarchy/Page27.jspx?subject=SDG&indicator=SDG_B871_SEX_AGE_RT&datasetCode=A&collectionCode=SDG",
                        "title" : "[8.7.1] Proportion of children engaged in economic activity and household chores",
                        "type" : "data"
                    },
                    {
                        "key" : "https://www.ilo.org/ilostat/faces/oracle/webcenter/portalapp/pagehierarchy/Page27.jspx?subject=SDG&indicator=SDG_A871_SEX_AGE_RT&datasetCode=A&collectionCode=SDG",
                        "title" : "[8.7.1] Proportion of children engaged in economic activity",
                        "type" : "data"
                    },
                    {
                        "key" : "https://www.ilo.org/ilostat/faces/oracle/webcenter/portalapp/pagehierarchy/Page27.jspx?subject=SDG&indicator=SDG_N881_SEX_MIG_RT&datasetCode=A&collectionCode=SDG",
                        "title" : "[8.8.1] Non-fatal occupational injuries per 100'000 workers",
                        "type" : "data"
                    },
                    {
                        "key" : "https://www.ilo.org/ilostat/faces/oracle/webcenter/portalapp/pagehierarchy/Page27.jspx?subject=SDG&indicator=SDG_F881_SEX_MIG_RT&datasetCode=A&collectionCode=SDG",
                        "title" : "[8.8.1] Fatal occupational injuries per 100'000 workers",
                        "type" : "data"
                    }
                ]
            },
            {
                "key" : "Goal 9. Build resilient infrastructure, promote inclusive and sustainable industrialization and foster innovation",
                "title" : "Goal 9. Build resilient infrastructure, promote inclusive and sustainable industrialization and foster innovation",
                "type" : "category",
                "children" : [
                    {
                        "key" : "https://www.ilo.org/ilostat/faces/oracle/webcenter/portalapp/pagehierarchy/Page27.jspx?subject=SDG&indicator=SDG_0922_NOC_RT&datasetCode=A&collectionCode=SDG",
                        "title" : "[9.2.2] Manufacturing employment as a proportion of total employment",
                        "type" : "data"
                    }
                ]
            },
            {
               "key" : "Goal 10. Reduce inequality within and among countries",
               "title" : "Goal 10. Reduce inequality within and among countries",
               "type" : "category",
               "children" : [
                   {
                       "key" : "https://www.ilo.org/ilostat/faces/oracle/webcenter/portalapp/pagehierarchy/Page27.jspx?subject=SDG&indicator=SDG_1041_NOC_RT&datasetCode=A&collectionCode=SDG",
                       "title" : "[10.4.1] Labour income share as a percent of GDP",
                       "type" : "data"
                   }
               ]
            }
        ]
    },
    {
        "key" : "ILO modelled estimates",
        "title" : "ILO modelled estimates",
        "type" : "category",
        "children" : [
            {
                "key" : "Population",
                "title" : "Population",
                "type" : "category",
                "children" : [
                    {
                        "key" : "https://www.ilo.org/ilostat/faces/oracle/webcenter/portalapp/pagehierarchy/Page27.jspx?subject=ILOEST&indicator=POP_2LDR_NOC_RT&datasetCode=A&collectionCode=ILOEST",
                        "title" : "Labour dependency ratio -- ILO modelled estimates, May 2018",
                        "type" : "data"
                    },
                    {
                        "key" : "https://www.ilo.org/ilostat/faces/oracle/webcenter/portalapp/pagehierarchy/Page27.jspx?subject=ILOEST&indicator=POP_2POP_SEX_AGE_NB&datasetCode=A&collectionCode=ILOEST",
                        "title" : "by sex and age -- UN estimates and projections, July 2017",
                        "type" : "data"
                    },
                    {
                        "key" : "https://www.ilo.org/ilostat/faces/oracle/webcenter/portalapp/pagehierarchy/Page27.jspx?subject=ILOEST&indicator=POP_2POP_SEX_AGE_GEO_NB&datasetCode=A&collectionCode=ILOEST",
                        "title" : "by sex, age and rural / urban areas -- UN estimates, July 2017",
                        "type" : "data"
                    },
                    {
                        "key" : "https://www.ilo.org/ilostat/faces/oracle/webcenter/portalapp/pagehierarchy/Page27.jspx?subject=ILOEST&indicator=POP_2POP_GEO_NB&datasetCode=A&collectionCode=ILOEST",
                        "title" : "by rural / urban areas -- UN estimates and projections, July 2017",
                        "type" : "data"
                    }
                ]
            },
            {
                "key" : "Labour force",
                "title" : "Labour force",
                "type" : "category",
                "children" : [
                    {
                        "key" : "https://www.ilo.org/ilostat/faces/oracle/webcenter/portalapp/pagehierarchy/Page27.jspx?subject=ILOEST&indicator=EAP_2EAP_SEX_AGE_NB&datasetCode=A&collectionCode=ILOEST",
                        "title" : "by sex and age -- ILO modelled estimates, July 2017",
                        "type" : "data"
                    },
                    {
                        "key" : "https://www.ilo.org/ilostat/faces/oracle/webcenter/portalapp/pagehierarchy/Page27.jspx?subject=ILOEST&indicator=EAP_2MDN_SEX_NB&datasetCode=A&collectionCode=ILOEST",
                        "title" : "Median age of the labour force by sex -- ILO modelled estimates, July 2017",
                        "type" : "data"
                    }
                ]
            },
            {
                "key" : "Labour force participation rate",
                "title" : "Labour force participation rate",
                "type" : "category",
                "children" : [
                    {
                        "key" : "https://www.ilo.org/ilostat/faces/oracle/webcenter/portalapp/pagehierarchy/Page27.jspx?subject=ILOEST&indicator=EAP_2WAP_SEX_AGE_RT&datasetCode=A&collectionCode=ILOEST",
                        "title" : "by sex and age -- ILO modelled estimates, July 2017",
                        "type" : "data"
                    }
                ]
            },
            {
                "key" : "Employment",
                "title" : "Employment",
                "type" : "category",
                "children" : [
                    {
                        "key" : "https://www.ilo.org/ilostat/faces/oracle/webcenter/portalapp/pagehierarchy/Page27.jspx?subject=ILOEST&indicator=EMP_2EMP_SEX_AGE_NB&datasetCode=A&collectionCode=ILOEST",
                        "title" : "by sex and age -- ILO modelled estimates, May 2018",
                        "type" : "data"
                    },
                    {
                        "key" : "https://www.ilo.org/ilostat/faces/oracle/webcenter/portalapp/pagehierarchy/Page27.jspx?subject=ILOEST&indicator=EMP_2EMP_SEX_STE_NB&datasetCode=A&collectionCode=ILOEST",
                        "title" : "by sex and status in employment -- ILO modelled estimates, May 2018",
                        "type" : "data"
                    },
                    {
                        "key" : "https://www.ilo.org/ilostat/faces/oracle/webcenter/portalapp/pagehierarchy/Page27.jspx?subject=ILOEST&indicator=EMP_2EMP_SEX_ECO_NB&datasetCode=A&collectionCode=ILOEST",
                        "title" : "by sex and economic activity -- ILO modelled estimates, May 2018",
                        "type" : "data"
                    },
                    {
                        "key" : "https://www.ilo.org/ilostat/faces/oracle/webcenter/portalapp/pagehierarchy/Page27.jspx?subject=ILOEST&indicator=EMP_2EMP_SEX_OCU_NB&datasetCode=A&collectionCode=ILOEST",
                        "title" : "by sex and occupation -- ILO modelled estimates, May 2018",
                        "type" : "data"
                    },
                    {
                        "key" : "https://www.ilo.org/ilostat/faces/oracle/webcenter/portalapp/pagehierarchy/Page27.jspx?subject=ILOEST&indicator=EMP_2EMP_SEX_AGE_CLA_NB&datasetCode=A&collectionCode=ILOEST",
                        "title" : "by sex, age and economic class -- ILO modelled estimates, May 2018",
                        "type" : "data"
                    }
                ]
            },
            {
                "key" : "Employment distribution",
                "title" : "Employment distribution",
                "type" : "category",
                "children" : [
                    {
                       "key" : "https://www.ilo.org/ilostat/faces/oracle/webcenter/portalapp/pagehierarchy/Page27.jspx?subject=ILOEST&indicator=EMP_2EMP_SEX_STE_DT&datasetCode=A&collectionCode=ILOEST",
                       "title" : "by status in employment (by sex) -- ILO modelled estimates, May 2018",
                       "type" : "data"
                    },
                    {
                        "key" : "https://www.ilo.org/ilostat/faces/oracle/webcenter/portalapp/pagehierarchy/Page27.jspx?subject=ILOEST&indicator=EMP_2EMP_SEX_ECO_DT&datasetCode=A&collectionCode=ILOEST",
                        "title" : "by economic activity (by sex) -- ILO modelled estimates, May 2018",
                        "type" : "data"
                    },
                    {
                        "key" : "https://www.ilo.org/ilostat/faces/oracle/webcenter/portalapp/pagehierarchy/Page27.jspx?subject=ILOEST&indicator=EMP_2EMP_SEX_OCU_DT&datasetCode=A&collectionCode=ILOEST",
                        "title" : "by occupation (by sex) -- ILO modelled estimates, May 2018",
                        "type" : "data"
                    },
                    {
                        "key" : "https://www.ilo.org/ilostat/faces/oracle/webcenter/portalapp/pagehierarchy/Page27.jspx?subject=ILOEST&indicator=EMP_2EMP_SEX_AGE_CLA_DT&datasetCode=A&collectionCode=ILOEST",
                        "title" : "by economic class (by sex and age) -- ILO modelled estimates, May 2018",
                        "type" : "data"
                    }
                ]
            },
            {
                "key" : "Employment-to-population ratio",
                "title" : "Employment-to-population ratio",
                "type" : "category",
                "children" : [
                    {
                        "key" : "https://www.ilo.org/ilostat/faces/oracle/webcenter/portalapp/pagehierarchy/Page27.jspx?subject=ILOEST&indicator=EMP_2WAP_SEX_AGE_RT&datasetCode=A&collectionCode=ILOEST",
                        "title" : "by sex and age -- ILO modelled estimates, May 2018",
                        "type" : "data"
                    }
                ]
            },
            {
                "key" : "Unemployment",
                "title" : "Unemployment",
                "type" : "category",
                "children" : [
                    {
                        "key" : "https://www.ilo.org/ilostat/faces/oracle/webcenter/portalapp/pagehierarchy/Page27.jspx?subject=ILOEST&indicator=UNE_2UNE_SEX_AGE_NB&datasetCode=A&collectionCode=ILOEST",
                        "title" : "by sex and age -- ILO modelled estimates, May 2018",
                        "type" : "data"
                    }
                ]
            },
            {
                "key" : "Unemployment rate",
                "title" : "Unemployment rate",
                "type" : "category",
                "children" : [
                    {
                        "key" : "https://www.ilo.org/ilostat/faces/oracle/webcenter/portalapp/pagehierarchy/Page27.jspx?subject=ILOEST&indicator=UNE_2EAP_SEX_AGE_RT&datasetCode=A&collectionCode=ILOEST",
                        "title" : "by sex and age -- ILO modelled estimates, May 2018",
                        "type" : "data"
                    }
                ]
            },
            {
                "key" : "Persons outside the labour force",
                "title" : "Persons outside the labour force",
                "type" : "category",
                "children" : [
                    {
                        "key" : "https://www.ilo.org/ilostat/faces/oracle/webcenter/portalapp/pagehierarchy/Page27.jspx?subject=ILOEST&indicator=EIP_2EIP_SEX_AGE_NB&datasetCode=A&collectionCode=ILOEST",
                        "title" : "by sex and age -- ILO modelled estimates July 2017",
                        "type" : "data"
                    }
                ]
            },
            {
                "key" : "Inactivity rate",
                "title" : "Inactivity rate",
                "type" : "category",
                "children" : [
                    {
                       "key" : "https://www.ilo.org/ilostat/faces/oracle/webcenter/portalapp/pagehierarchy/Page27.jspx?subject=ILOEST&indicator=EIP_2WAP_SEX_AGE_RT&datasetCode=A&collectionCode=ILOEST",
                       "title" : "by sex and age -- ILO modelled estimates, July 2017",
                       "type" : "data"
                    }
                ]
            },
            {
                "key" : "Earnings of employees",
                "title" : "Earnings of employees",
                "type" : "category",
                "children" : [
                    {
                        "key" : "https://www.ilo.org/ilostat/faces/oracle/webcenter/portalapp/pagehierarchy/Page27.jspx?subject=ILOEST&indicator=EAR_MREE_NOC_GR&datasetCode=A&collectionCode=ILOEST",
                        "title" : "Mean real monthly earnings of employees, annual growth -- ILO modelled estimates, Nov. 2018",
                        "type" : "data"
                    }
                ]
            }
        ]
    },
    {
        "key" : "Population and labour force",
        "title" : "Population and labour force",
        "type" : "category",
        "children" : [
            {
                "key" : "Working-age population",
                "title" : "Working-age population",
                "type" : "category",
                "children" : [
                    {
                        "key" : "https://www.ilo.org/ilostat/faces/oracle/webcenter/portalapp/pagehierarchy/Page27.jspx?subject=EAP&indicator=POP_XWAP_SEX_AGE_NB&datasetCode=A&collectionCode=YI",
                        "title" : "by sex and age",
                        "type" : "data"
                    },
                    {
                        "key" : "https://www.ilo.org/ilostat/faces/oracle/webcenter/portalapp/pagehierarchy/Page27.jspx?subject=EAP&indicator=POP_XWAP_SEX_AGE_EDU_NB&datasetCode=A&collectionCode=YI",
                        "title" : "by sex, age and education",
                        "type" : "data"
                    },
                    {
                        "key" : "https://www.ilo.org/ilostat/faces/oracle/webcenter/portalapp/pagehierarchy/Page27.jspx?subject=EAP&indicator=POP_XWAP_SEX_AGE_GEO_NB&datasetCode=A&collectionCode=YI",
                        "title" : "by sex, age and rural / urban areas",
                        "type" : "data"
                    }
                ]
            },
            {
                "key" : "Labour force",
                "title" : "Labour force",
                "type" : "category",
                "children" : [
                    {
                        "key" : "https://www.ilo.org/ilostat/faces/oracle/webcenter/portalapp/pagehierarchy/Page27.jspx?subject=EAP&indicator=EAP_TEAP_SEX_AGE_NB&datasetCode=A&collectionCode=YI",
                        "title" : "by sex and age",
                        "type" : "data"
                    },
                    {
                        "key" : "https://www.ilo.org/ilostat/faces/oracle/webcenter/portalapp/pagehierarchy/Page27.jspx?subject=EAP&indicator=EAP_TEAP_SEX_AGE_EDU_NB&datasetCode=A&collectionCode=YI",
                        "title" : "by sex, age and education",
                        "type" : "data"
                    },
                    {
                        "key" : "https://www.ilo.org/ilostat/faces/oracle/webcenter/portalapp/pagehierarchy/Page27.jspx?subject=EAP&indicator=EAP_TEAP_SEX_AGE_GEO_NB&datasetCode=A&collectionCode=YI",
                        "title" : "by sex, age and rural / urban areas",
                        "type" : "data"
                    }
                ]
            },
            {
                "key" : "Labour force distribution",
                "title" : "Labour force distribution",
                "type" : "category",
                "children" : [
                    {
                        "key" : "https://www.ilo.org/ilostat/faces/oracle/webcenter/portalapp/pagehierarchy/Page27.jspx?subject=EAP&indicator=EAP_TEAP_SEX_AGE_EDU_DT&datasetCode=A&collectionCode=YI",
                        "title" : "by education (by sex and age)",
                        "type" : "data"
                    }
                ]
            },
            {
                "key" : "Labour force participation rate",
                "title" : "Labour force participation rate",
                "type" : "category",
                "children" : [
                    {
                        "key" : "https://www.ilo.org/ilostat/faces/oracle/webcenter/portalapp/pagehierarchy/Page27.jspx?subject=EAP&indicator=EAP_DWAP_SEX_AGE_RT&datasetCode=A&collectionCode=YI",
                        "title" : "by sex and age",
                        "type" : "data"
                    },
                    {
                        "key" : "https://www.ilo.org/ilostat/faces/oracle/webcenter/portalapp/pagehierarchy/Page27.jspx?subject=EAP&indicator=EAP_DWAP_SEX_AGE_EDU_RT&datasetCode=A&collectionCode=YI",
                        "title" : "by sex, age and education",
                        "type" : "data"
                    },
                    {
                        "key" : "https://www.ilo.org/ilostat/faces/oracle/webcenter/portalapp/pagehierarchy/Page27.jspx?subject=EAP&indicator=EAP_DWAP_SEX_AGE_GEO_RT&datasetCode=A&collectionCode=YI",
                        "title" : "by sex, age and rural / urban areas",
                        "type" : "data"
                    }
                ]
            }
        ]
    },
    {
        "key" : "Employment",
        "title" : "Employment",
        "type" : "category",
        "children" : [
            {
                "key" : "Employment",
                "title" : "Employment",
                "type" : "category",
                "children" : [
                    {
                        "key" : "https://www.ilo.org/ilostat/faces/oracle/webcenter/portalapp/pagehierarchy/Page27.jspx?subject=EMP&indicator=EMP_TEMP_SEX_AGE_NB&datasetCode=A&collectionCode=YI",
                        "title" : "by sex and age",
                        "type" : "data"
                    },
                    {
                        "key" : "https://www.ilo.org/ilostat/faces/oracle/webcenter/portalapp/pagehierarchy/Page27.jspx?subject=EMP&indicator=EMP_TEMP_SEX_AGE_EDU_NB&datasetCode=A&collectionCode=YI",
                        "title" : "by sex, age and education",
                        "type" : "data"
                    },
                    {
                        "key" : "https://www.ilo.org/ilostat/faces/oracle/webcenter/portalapp/pagehierarchy/Page27.jspx?subject=EMP&indicator=EMP_TEMP_SEX_AGE_GEO_NB&datasetCode=A&collectionCode=YI",
                        "title" : "by sex, age and rural / urban areas",
                        "type" : "data"
                    },
                    {
                        "key" : "https://www.ilo.org/ilostat/faces/oracle/webcenter/portalapp/pagehierarchy/Page27.jspx?subject=EMP&indicator=EMP_TEMP_SEX_STE_NB&datasetCode=A&collectionCode=YI",
                        "title" : "by sex and status in employment",
                        "type" : "data"
                    },
                    {
                        "key" : "https://www.ilo.org/ilostat/faces/oracle/webcenter/portalapp/pagehierarchy/Page27.jspx?subject=EMP&indicator=EMP_TEMP_SEX_INS_NB&datasetCode=A&collectionCode=YI",
                        "title" : "by sex and institutional sector",
                        "type" : "data"
                    },
                    {
                        "key" : "https://www.ilo.org/ilostat/faces/oracle/webcenter/portalapp/pagehierarchy/Page27.jspx?subject=EMP&indicator=EMP_TEMP_SEX_ECO_NB&datasetCode=A&collectionCode=YI",
                        "title" : "by sex and economic activity",
                        "type" : "data"
                    },
                    {
                        "key" : "https://www.ilo.org/ilostat/faces/oracle/webcenter/portalapp/pagehierarchy/Page27.jspx?subject=EMP&indicator=EMP_TEMP_SEX_OCU_NB&datasetCode=A&collectionCode=YI",
                        "title" : "by sex and occupation",
                        "type" : "data"
                    },
                    {
                        "key" : "https://www.ilo.org/ilostat/faces/oracle/webcenter/portalapp/pagehierarchy/Page27.jspx?subject=EMP&indicator=EMP_TEMP_SEX_HOW_NB&datasetCode=A&collectionCode=YI",
                        "title" : "by sex and weekly hours actually worked",
                        "type" : "data"
                    },
                    {
                        "key" : "https://www.ilo.org/ilostat/faces/oracle/webcenter/portalapp/pagehierarchy/Page27.jspx?subject=EMP&indicator=EMP_TEMP_ECO_OCU_NB&datasetCode=A&collectionCode=YI",
                        "title" : "by economic activity and occupation",
                        "type" : "data"
                    }
                ]
            },
            {
                "key" : "Employment distribution",
                "title" : "Employment distribution",
                "type" : "category",
                "children" : [
                    {
                       "key" : "https://www.ilo.org/ilostat/faces/oracle/webcenter/portalapp/pagehierarchy/Page27.jspx?subject=EMP&indicator=EMP_TEMP_SEX_AGE_EDU_DT&datasetCode=A&collectionCode=YI",
                       "title" : "by education (by sex and age)",
                       "type" : "data"
                    },
                    {
                        "key" : "https://www.ilo.org/ilostat/faces/oracle/webcenter/portalapp/pagehierarchy/Page27.jspx?subject=EMP&indicator=EMP_TEMP_SEX_ECO_DT&datasetCode=A&collectionCode=YI",
                        "title" : "by economic activity (by sex)",
                        "type" : "data"
                    },
                    {
                        "key" : "https://www.ilo.org/ilostat/faces/oracle/webcenter/portalapp/pagehierarchy/Page27.jspx?subject=EMP&indicator=EMP_TEMP_SEX_OCU_DT&datasetCode=A&collectionCode=YI",
                        "title" : "by occupation (by sex)",
                        "type" : "data"
                    },
                    {
                        "key" : "https://www.ilo.org/ilostat/faces/oracle/webcenter/portalapp/pagehierarchy/Page27.jspx?subject=EMP&indicator=EMP_TEMP_SEX_STE_DT&datasetCode=A&collectionCode=YI",
                        "title" : "by status in employment (by sex)",
                        "type" : "data"
                    },
                    {
                        "key" : "https://www.ilo.org/ilostat/faces/oracle/webcenter/portalapp/pagehierarchy/Page27.jspx?subject=EMP&indicator=EMP_TEMP_SEX_HOW_DT&datasetCode=A&collectionCode=YI",
                        "title" : "by hours actually worked (by sex)",
                        "type" : "data"
                    }
                ]
            },
            {
                "key" : "Female share of employment",
                "title" : "Female share of employment",
                "type" : "category",
                "children" : [
                    {
                       "key" : "https://www.ilo.org/ilostat/faces/oracle/webcenter/portalapp/pagehierarchy/Page27.jspx?subject=EMP&indicator=EMP_XFMG_NOC_RT&datasetCode=A&collectionCode=YI",
                       "title" : "in senior and middle management",
                       "type" : "data"
                    }
                ]
            },
            {
                "key" : "Employment-to-population ratio",
                "title" : "Employment-to-population ratio",
                "type" : "category",
                "children" : [
                    {
                        "key" : "https://www.ilo.org/ilostat/faces/oracle/webcenter/portalapp/pagehierarchy/Page27.jspx?subject=EMP&indicator=EMP_DWAP_SEX_AGE_RT&datasetCode=A&collectionCode=YI",
                        "title" : "by sex and age",
                        "type" : "data"
                    },
                    {
                        "key" : "https://www.ilo.org/ilostat/faces/oracle/webcenter/portalapp/pagehierarchy/Page27.jspx?subject=EMP&indicator=EMP_DWAP_SEX_AGE_GEO_RT&datasetCode=A&collectionCode=YI",
                        "title" : "by sex, age and rural / urban areas",
                        "type" : "data"
                    }
                ]
            },
            {
                "key" : "Part-time employment",
                "title" : "Part-time employment",
                "type" : "category",
                "children" : [
                    {
                       "key" : "https://www.ilo.org/ilostat/faces/oracle/webcenter/portalapp/pagehierarchy/Page27.jspx?subject=EMP&indicator=EMP_PTER_SEX_RT&datasetCode=A&collectionCode=YI",
                       "title" : "Incidence of part-time employment by sex -- Common definition",
                       "type" : "data"
                    }
                ]
            },
            {
                "key" : "Employees",
                "title" : "Employees",
                "type" : "category",
                "children" : [
                    {
                       "key" : "https://www.ilo.org/ilostat/faces/oracle/webcenter/portalapp/pagehierarchy/Page27.jspx?subject=EMP&indicator=EES_TEES_SEX_ECO_NB&datasetCode=A&collectionCode=YI",
                       "title" : "by sex and economic activity",
                       "type" : "data"
                    },
                    {
                        "key" : "https://www.ilo.org/ilostat/faces/oracle/webcenter/portalapp/pagehierarchy/Page27.jspx?subject=EMP&indicator=EES_TEES_SEX_OCU_NB&datasetCode=A&collectionCode=YI",
                        "title" : "by sex and occupation",
                        "type" : "data"
                    }
                ]
            },
            {
                "key" : "Non-standard forms of employment",
                "title" : "Non-standard forms of employment",
                "type" : "category",
                "children" : [
                    {
                        "key" : "https://www.ilo.org/ilostat/faces/oracle/webcenter/portalapp/pagehierarchy/Page27.jspx?subject=EMP&indicator=EES_XTMP_SEX_RT&datasetCode=A&collectionCode=YI",
                        "title" : "Share of temporary employees by sex",
                        "type" : "data"
                    }
                ]
            },
            {
                "key" : "Informality",
                "title" : "Informality",
                "type" : "category",
                "children" : [
                    {
                        "key" : "https://www.ilo.org/ilostat/faces/oracle/webcenter/portalapp/pagehierarchy/Page27.jspx?subject=EMP&indicator=IFL_XIEM_SEX_ECO_IFL_NB&datasetCode=A&collectionCode=YI",
                        "title" : "Informal employment and informal sector by sex",
                        "type" : "data"
                    },
                    {
                        "key" : "https://www.ilo.org/ilostat/faces/oracle/webcenter/portalapp/pagehierarchy/Page27.jspx?subject=EMP&indicator=IFL_XIEM_SEX_ECO_IFL_RT&datasetCode=A&collectionCode=YI",
                        "title" : "Informal employment and informal sector as a percent of employment by sex",
                        "type" : "data"
                    },
                    {
                        "key" : "https://www.ilo.org/ilostat/faces/oracle/webcenter/portalapp/pagehierarchy/Page27.jspx?subject=EMP&indicator=IFL_4IEM_SEX_ECO_IFL_NB&datasetCode=A&collectionCode=YI",
                        "title" : "Informal employment and informal sector by sex -- Harmonized series",
                        "type" : "data"
                    },
                    {
                        "key" : "https://www.ilo.org/ilostat/faces/oracle/webcenter/portalapp/pagehierarchy/Page27.jspx?subject=EMP&indicator=IFL_4IEM_SEX_ECO_IFL_RT&datasetCode=A&collectionCode=YI",
                        "title" : "Informal employment and informal sector as a percent of employment by sex -- Harmonized series",
                        "type" : "data"
                    }
                ]
            },
            {
                "key" : "Public sector",
                "title" : "Public sector",
                "type" : "category",
                "children" : [
                    {
                        "key" : "https://www.ilo.org/ilostat/faces/oracle/webcenter/portalapp/pagehierarchy/Page27.jspx?subject=EMP&indicator=PSE_TPSE_GOV_NB&datasetCode=A&collectionCode=YI",
                        "title" : "Public employment by sectors and sub-sectors of national accounts",
                        "type" : "data"
                    }
                ]
            }
        ]
    },
    {
        "key" : "Unemployment and labour underutilization",
        "title" : "Unemployment and labour underutilization",
        "type" : "category",
        "children" : [
            {
               "key" : "Underemployment -- Time-related",
               "title" : "Underemployment -- Time-related",
               "type" : "category",
               "children" : [
                   {
                       "key" : "https://www.ilo.org/ilostat/faces/oracle/webcenter/portalapp/pagehierarchy/Page27.jspx?subject=LUU&indicator=TRU_TTRU_SEX_AGE_NB&datasetCode=A&collectionCode=YI",
                       "title" : "Time-related underemployment by sex and age",
                       "type" : "data"
                   },
                   {
                       "key" : "https://www.ilo.org/ilostat/faces/oracle/webcenter/portalapp/pagehierarchy/Page27.jspx?subject=LUU&indicator=TRU_DEMP_SEX_AGE_RT&datasetCode=A&collectionCode=YI",
                       "title" : "Time-related underemployment rate by sex and age",
                       "type" : "data"
                   }
               ]
            },
            {
                "key" : "Unemployment",
                "title" : "Unemployment",
                "type" : "category",
                "children" : [
                    {
                        "key" : "https://www.ilo.org/ilostat/faces/oracle/webcenter/portalapp/pagehierarchy/Page27.jspx?subject=LUU&indicator=UNE_TUNE_SEX_AGE_NB&datasetCode=A&collectionCode=YI",
                        "title" : "by sex and age",
                        "type" : "data"
                    },
                    {
                        "key" : "https://www.ilo.org/ilostat/faces/oracle/webcenter/portalapp/pagehierarchy/Page27.jspx?subject=LUU&indicator=UNE_TUNE_SEX_DSB_NB&datasetCode=A&collectionCode=YI",
                        "title" : "by sex and disability status",
                        "type" : "data"
                    },
                    {
                        "key" : "https://www.ilo.org/ilostat/faces/oracle/webcenter/portalapp/pagehierarchy/Page27.jspx?subject=LUU&indicator=UNE_TUNE_SEX_AGE_EDU_NB&datasetCode=A&collectionCode=YI",
                        "title" : "by sex, age and education",
                        "type" : "data"
                    },
                    {
                        "key" : "https://www.ilo.org/ilostat/faces/oracle/webcenter/portalapp/pagehierarchy/Page27.jspx?subject=LUU&indicator=UNE_TUNE_SEX_AGE_GEO_NB&datasetCode=A&collectionCode=YI",
                        "title" : "by sex, age and rural / urban areas",
                        "type" : "data"
                    },
                    {
                        "key" : "https://www.ilo.org/ilostat/faces/oracle/webcenter/portalapp/pagehierarchy/Page27.jspx?subject=LUU&indicator=UNE_TUNE_SEX_AGE_DUR_NB&datasetCode=A&collectionCode=YI",
                        "title" : "by sex, age and duration",
                        "type" : "data"
                    }
                ]
            },
            {
                "key" : "Unemployment distribution",
                "title" : "Unemployment distribution",
                "type" : "category",
                "children" : [
                    {
                        "key" : "https://www.ilo.org/ilostat/faces/oracle/webcenter/portalapp/pagehierarchy/Page27.jspx?subject=LUU&indicator=UNE_TUNE_SEX_AGE_EDU_DT&datasetCode=A&collectionCode=YI",
                        "title" : "by education (by sex and age)",
                        "type" : "data"
                    },
                    {
                        "key" : "https://www.ilo.org/ilostat/faces/oracle/webcenter/portalapp/pagehierarchy/Page27.jspx?subject=LUU&indicator=UNE_TUNE_SEX_AGE_DUR_DT&datasetCode=A&collectionCode=YI",
                        "title" : "by duration (by sex and age)",
                        "type" : "data"
                    }
                ]
            },
            {
                "key" : "Unemployment rate",
                "title" : "Unemployment rate",
                "type" : "category",
                "children" : [
                    {
                        "key" : "https://www.ilo.org/ilostat/faces/oracle/webcenter/portalapp/pagehierarchy/Page27.jspx?subject=LUU&indicator=UNE_DEAP_SEX_AGE_RT&datasetCode=A&collectionCode=YI",
                        "title" : "by sex and age",
                        "type" : "data"
                    },
                    {
                        "key" : "https://www.ilo.org/ilostat/faces/oracle/webcenter/portalapp/pagehierarchy/Page27.jspx?subject=LUU&indicator=UNE_DEAP_SEX_DSB_RT&datasetCode=A&collectionCode=YI",
                        "title" : "by sex and disability status",
                        "type" : "data"
                    },
                    {
                        "key" : "https://www.ilo.org/ilostat/faces/oracle/webcenter/portalapp/pagehierarchy/Page27.jspx?subject=LUU&indicator=UNE_DEAP_SEX_AGE_EDU_RT&datasetCode=A&collectionCode=YI",
                        "title" : "by sex, age and education",
                        "type" : "data"
                    },
                    {
                        "key" : "https://www.ilo.org/ilostat/faces/oracle/webcenter/portalapp/pagehierarchy/Page27.jspx?subject=LUU&indicator=UNE_DEAP_SEX_AGE_GEO_RT&datasetCode=A&collectionCode=YI",
                        "title" : "by sex, age and rural / urban areas",
                        "type" : "data"
                    }
                ]
            },
            {
                "key" : "Supplementary measures of labour underutilization",
                "title" : "Supplementary measures of labour underutilization",
                "type" : "category",
                "children" : [
                    {
                        "key" : "https://www.ilo.org/ilostat/faces/oracle/webcenter/portalapp/pagehierarchy/Page27.jspx?subject=LUU&indicator=LUU_XLU2_SEX_AGE_RT&datasetCode=A&collectionCode=YI",
                        "title" : "Combined rate of time-related underemployment and unemployment (LU2) by sex and age",
                        "type" : "data"
                    },
                    {
                        "key" : "https://www.ilo.org/ilostat/faces/oracle/webcenter/portalapp/pagehierarchy/Page27.jspx?subject=LUU&indicator=LUU_XLU3_SEX_AGE_RT&datasetCode=A&collectionCode=YI",
                        "title" : "Combined rate of unemployment and potential labour force (LU3) by sex and age",
                        "type" : "data"
                    },
                    {
                        "key" : "https://www.ilo.org/ilostat/faces/oracle/webcenter/portalapp/pagehierarchy/Page27.jspx?subject=LUU&indicator=LUU_XLU4_SEX_AGE_RT&datasetCode=A&collectionCode=YI",
                        "title" : "Composite measure of labour underutilization (LU4) by sex and age",
                        "type" : "data"
                    }
                ]
            },
            {
                "key" : "Discouraged job-seekers",
                "title" : "Discouraged job-seekers",
                "type" : "category",
                "children" : [
                    {
                        "key" : "https://www.ilo.org/ilostat/faces/oracle/webcenter/portalapp/pagehierarchy/Page27.jspx?subject=LUU&indicator=EIP_WDIS_SEX_AGE_NB&datasetCode=A&collectionCode=YI",
                        "title" : "by sex and age",
                        "type" : "data"
                    }
                ]
            },
            {
                "key" : "Youth NEET",
                "title" : "Youth NEET",
                "type" : "category",
                "children" : [
                    {
                        "key" : "https://www.ilo.org/ilostat/faces/oracle/webcenter/portalapp/pagehierarchy/Page27.jspx?subject=LUU&indicator=EIP_NEET_SEX_NB&datasetCode=A&collectionCode=YI",
                        "title" : "Youth not in employment, education or training (NEET) by sex",
                        "type" : "data"
                    },
                    {
                        "key" : "https://www.ilo.org/ilostat/faces/oracle/webcenter/portalapp/pagehierarchy/Page27.jspx?subject=LUU&indicator=EIP_NEET_SEX_RT&datasetCode=A&collectionCode=YI",
                        "title" : "Share of youth not in employment, education or training (NEET) by sex",
                        "type" : "data"
                    }
                ]
            }
        ]
    },
    {
        "key" : "Working time",
        "title" : "Working time",
        "type" : "category",
        "children" : [
            {
                "key" : "Mean weekly hours actually worked per employed person",
                "title" : "Mean weekly hours actually worked per employed person",
                "type" : "category",
                "children" : [
                    {
                        "key" : "https://www.ilo.org/ilostat/faces/oracle/webcenter/portalapp/pagehierarchy/Page27.jspx?subject=HOW&indicator=HOW_TEMP_SEX_ECO_NB&datasetCode=A&collectionCode=YI",
                        "title" : "by sex and economic activity",
                        "type" : "data"
                    },
                    {
                        "key" : "https://www.ilo.org/ilostat/faces/oracle/webcenter/portalapp/pagehierarchy/Page27.jspx?subject=HOW&indicator=HOW_TEMP_SEX_OCU_NB&datasetCode=A&collectionCode=YI",
                        "title" : "by sex and occupation",
                        "type" : "data"
                    }
                ]
            },
            {
                "key" : "Mean weekly hours actually worked per employee",
                "title" : "Mean weekly hours actually worked per employee",
                "type" : "category",
                "children" : [
                    {
                        "key" : "https://www.ilo.org/ilostat/faces/oracle/webcenter/portalapp/pagehierarchy/Page27.jspx?subject=HOW&indicator=HOW_XEES_SEX_ECO_NB&datasetCode=A&collectionCode=YI",
                        "title" : "by sex and economic activity",
                        "type" : "data"
                    },
                    {
                        "key" : "https://www.ilo.org/ilostat/faces/oracle/webcenter/portalapp/pagehierarchy/Page27.jspx?subject=HOW&indicator=HOW_XEES_SEX_OCU_NB&datasetCode=A&collectionCode=YI",
                        "title" : "by sex and occupation",
                        "type" : "data"
                    }
                ]
            }
        ]
    },
    {
        "key" : "Earnings and labour cost",
        "title" : "Earnings and labour cost",
        "type" : "category",
        "children" : [
            {
                "key" : "Mean nominal monthly earnings of employees",
                "title" : "Mean nominal monthly earnings of employees",
                "type" : "category",
                "children" : [
                    {
                        "key" : "https://www.ilo.org/ilostat/faces/oracle/webcenter/portalapp/pagehierarchy/Page27.jspx?subject=EAR&indicator=EAR_XEES_SEX_ECO_NB&datasetCode=A&collectionCode=YI",
                        "title" : "by sex and economic activity",
                        "type" : "data"
                    },
                    {
                        "key" : "https://www.ilo.org/ilostat/faces/oracle/webcenter/portalapp/pagehierarchy/Page27.jspx?subject=EAR&indicator=EAR_4MTH_SEX_ECO_CUR_NB&datasetCode=A&collectionCode=YI",
                        "title" : "by sex and economic activity -- Harmonized series",
                        "type" : "data"
                    },
                    {
                        "key" : "https://www.ilo.org/ilostat/faces/oracle/webcenter/portalapp/pagehierarchy/Page27.jspx?subject=EAR&indicator=EAR_XEES_SEX_OCU_NB&datasetCode=A&collectionCode=YI",
                        "title" : "by sex and occupation",
                        "type" : "data"
                    },
                    {
                        "key" : "https://www.ilo.org/ilostat/faces/oracle/webcenter/portalapp/pagehierarchy/Page27.jspx?subject=EAR&indicator=EAR_4MTH_SEX_OCU_CUR_NB&datasetCode=A&collectionCode=YI",
                        "title" : "by sex and occupation -- Harmonized series",
                        "type" : "data"
                    }
                ]
            },
            {
                "key" : "Minimum wage",
                "title" : "Minimum wage",
                "type" : "category",
                "children" : [
                    {
                       "key" : "https://www.ilo.org/ilostat/faces/oracle/webcenter/portalapp/pagehierarchy/Page27.jspx?subject=EAR&indicator=EAR_INEE_NOC_NB&datasetCode=A&collectionCode=YI",
                       "title" : "Statutory nominal gross monthly minimum wage",
                       "type" : "data"
                    },
                    {
                        "key" : "https://www.ilo.org/ilostat/faces/oracle/webcenter/portalapp/pagehierarchy/Page27.jspx?subject=EAR&indicator=EAR_4MMN_CUR_NB&datasetCode=A&collectionCode=YI",
                        "title" : "Statutory nominal gross monthly minimum wage -- Harmonized series",
                        "type" : "data"
                    }
                ]
            },
            {
                "key" : "Mean nominal hourly earnings of employees",
                "title" : "Mean nominal hourly earnings of employees",
                "type" : "category",
                "children" : [
                    {
                        "key" : "https://www.ilo.org/ilostat/faces/oracle/webcenter/portalapp/pagehierarchy/Page27.jspx?subject=EAR&indicator=EAR_HEES_SEX_OCU_NB&datasetCode=A&collectionCode=YI",
                        "title" : "by sex and occupation",
                        "type" : "data"
                    },
                    {
                        "key" : "https://www.ilo.org/ilostat/faces/oracle/webcenter/portalapp/pagehierarchy/Page27.jspx?subject=EAR&indicator=EAR_4HRL_SEX_OCU_CUR_NB&datasetCode=A&collectionCode=YI",
                        "title" : "by sex and occupation -- Harmonized series",
                        "type" : "data"
                    }
                ]
            },
            {
                "key" : "Earnings distribution",
                "title" : "Earnings distribution",
                "type" : "category",
                "children" : [
                    {
                        "key" : "https://www.ilo.org/ilostat/faces/oracle/webcenter/portalapp/pagehierarchy/Page27.jspx?subject=EAR&indicator=EAR_XTLP_SEX_RT&datasetCode=A&collectionCode=YI",
                        "title" : "Low pay rate by sex",
                        "type" : "data"
                    },
                    {
                        "key" : "https://www.ilo.org/ilostat/faces/oracle/webcenter/portalapp/pagehierarchy/Page27.jspx?subject=EAR&indicator=EAR_XFLS_NOC_RT&datasetCode=A&collectionCode=YI",
                        "title" : "Female share of low pay earners",
                        "type" : "data"
                    },
                    {
                        "key" : "https://www.ilo.org/ilostat/faces/oracle/webcenter/portalapp/pagehierarchy/Page27.jspx?subject=EAR&indicator=EAR_GGAP_OCU_RT&datasetCode=A&collectionCode=YI",
                        "title" : "Gender wage gap by occupation",
                        "type" : "data"
                    }
                ]
            },
            {
                "key" : "Mean nominal hourly labour cost per employee",
                "title" : "Mean nominal hourly labour cost per employee",
                "type" : "category",
                "children" : [
                    {
                        "key" : "https://www.ilo.org/ilostat/faces/oracle/webcenter/portalapp/pagehierarchy/Page27.jspx?subject=EAR&indicator=LAC_XEES_ECO_NB&datasetCode=A&collectionCode=YI",
                        "title" : "by economic activity",
                        "type" : "data"
                    },
                    {
                        "key" : "https://www.ilo.org/ilostat/faces/oracle/webcenter/portalapp/pagehierarchy/Page27.jspx?subject=EAR&indicator=LAC_4HRL_ECO_CUR_NB&datasetCode=A&collectionCode=YI",
                        "title" : "by economic activity -- Harmonized series",
                        "type" : "data"
                    }
                ]
            },
            {
                "key" : "Labour income share",
                "title" : "Labour income share",
                "type" : "category",
                "children" : [
                    {
                        "key" : "https://www.ilo.org/ilostat/faces/oracle/webcenter/portalapp/pagehierarchy/Page27.jspx?subject=EAR&indicator=LAP_DGVA_NOC_RT&datasetCode=A&collectionCode=YI",
                        "title" : "in GDP",
                        "type" : "data"
                    }
                ]
            }
        ]
    },
    {
        "key" : "Labour productivity",
        "title" : "Labour productivity",
        "type" : "category",
        "children" : [
            {
                "key" : "Labour productivity",
                "title" : "Labour productivity",
                "type" : "category",
                "children" : [
                    {
                        "key" : "https://www.ilo.org/ilostat/faces/oracle/webcenter/portalapp/pagehierarchy/Page27.jspx?subject=LPY&indicator=GDP_211P_NOC_NB&datasetCode=A&collectionCode=ILOEST",
                        "title" : "Output per worker (GDP constant 2011 international $ in PPP) -- ILO modelled estimates, May 2018",
                        "type" : "data"
                    },
                    {
                        "key" : "https://www.ilo.org/ilostat/faces/oracle/webcenter/portalapp/pagehierarchy/Page27.jspx?subject=LPY&indicator=GDP_205U_NOC_NB&datasetCode=A&collectionCode=ILOEST",
                        "title" : "Output per worker (GDP constant 2010 US $) -- ILO modelled estimates, May 2018",
                        "type" : "data"
                    }
                ]
            }
        ]
    },
    {
        "key" : "Social protection",
        "title" : "Social protection",
        "type" : "category",
        "children" : [
            {
                "key" : "Health expenditure",
                "title" : "Health expenditure",
                "type" : "category",
                "children" : [
                    {
                        "key" : "https://www.ilo.org/ilostat/faces/oracle/webcenter/portalapp/pagehierarchy/Page27.jspx?subject=SOC&indicator=SOC_HEXP_INS_RT&datasetCode=A&collectionCode=SSI",
                        "title" : "Total health expenditure as a percent of GDP by institutional sector",
                        "type" : "data"
                    },
                    {
                        "key" : "https://www.ilo.org/ilostat/faces/oracle/webcenter/portalapp/pagehierarchy/Page27.jspx?subject=SOC&indicator=SOC_NPHC_NOC_RT&datasetCode=A&collectionCode=SSI",
                        "title" : "Percentage of health care expenditure not financed by private households' out of pocket payments",
                        "type" : "data"
                    },
                    {
                        "key" : "https://www.ilo.org/ilostat/faces/oracle/webcenter/portalapp/pagehierarchy/Page27.jspx?subject=SOC&indicator=SOC_EGGE_NOC_RT&datasetCode=A&collectionCode=SSI",
                        "title" : "Public health expenditure as a percent of General Government Expenditure",
                        "type" : "data"
                    }
                ]
            },
            {
                "key" : "Social protection coverage",
                "title" : "Social protection coverage",
                "type" : "category",
                "children" : [
                    {
                        "key" : "https://www.ilo.org/ilostat/faces/oracle/webcenter/portalapp/pagehierarchy/Page27.jspx?subject=SOC&indicator=SOC_SOCP_SEX_RT&datasetCode=A&collectionCode=SSI",
                        "title" : "Share of unemployed receiving regular periodic social security unemployment benefits by sex",
                        "type" : "data"
                    },
                    {
                        "key" : "https://www.ilo.org/ilostat/faces/oracle/webcenter/portalapp/pagehierarchy/Page27.jspx?subject=SOC&indicator=SOC_HCOV_NOC_RT&datasetCode=A&collectionCode=SSI",
                        "title" : "Social health protection coverage as a percent of total population",
                        "type" : "data"
                    }
                ]
            },
            {
                "key" : "Public social protection expenditure",
                "title" : "Public social protection expenditure",
                "type" : "category",
                "children" : [
                    {
                       "key" : "https://www.ilo.org/ilostat/faces/oracle/webcenter/portalapp/pagehierarchy/Page27.jspx?subject=SOC&indicator=SOC_PSPE_EXP_RT&datasetCode=A&collectionCode=SSI",
                       "title" : "as a percent of GDP in function of health care",
                       "type" : "data"
                    },
                    {
                        "key" : "https://www.ilo.org/ilostat/faces/oracle/webcenter/portalapp/pagehierarchy/Page27.jspx?subject=SOC&indicator=SOC_EBEN_AGE_RT&datasetCode=A&collectionCode=SSI",
                        "title" : "on benefits as a percent of GDP by age",
                        "type" : "data"
                    },
                    {
                        "key" : "https://www.ilo.org/ilostat/faces/oracle/webcenter/portalapp/pagehierarchy/Page27.jspx?subject=SOC&indicator=SOC_WBEN_NOC_RT&datasetCode=A&collectionCode=SSI",
                        "title" : "on benefits for the working-age as a percent of GDP in function of general social assistance",
                        "type" : "data"
                    }
                ]
            },
            {
                "key" : "Pension type",
                "title" : "Pension type",
                "type" : "category",
                "children" : [
                    {
                       "key" : "https://www.ilo.org/ilostat/faces/oracle/webcenter/portalapp/pagehierarchy/Page27.jspx?subject=SOC&indicator=SOC_PPEN_SEX_RT&datasetCode=A&collectionCode=SSI",
                       "title" : "Share of population above statutory pensionable age receiving an old age pension by sex",
                       "type" : "data"
                    },
                    {
                        "key" : "https://www.ilo.org/ilostat/faces/oracle/webcenter/portalapp/pagehierarchy/Page27.jspx?subject=SOC&indicator=SOC_CEAP_SEX_RT&datasetCode=A&collectionCode=SSI",
                        "title" : "Active contributors to an old age contributory scheme as a percent of labour force by sex",
                        "type" : "data"
                    },
                    {
                        "key" : "https://www.ilo.org/ilostat/faces/oracle/webcenter/portalapp/pagehierarchy/Page27.jspx?subject=SOC&indicator=SOC_CWAP_SEX_RT&datasetCode=A&collectionCode=SSI",
                        "title" : "Active contributors to an old age contributory scheme as a percent of the working age population by sex",
                        "type" : "data"
                    }
                ]
            }
        ]
    },
    {
        "key" : "Safety and health at work",
        "title" : "Safety and health at work",
        "type" : "category",
        "children" : [
            {
                "key" : "Occupational injuries -- Time lost",
                "title" : "Occupational injuries -- Time lost",
                "type" : "category",
                "children" : [
                    {
                        "key" : "https://www.ilo.org/ilostat/faces/oracle/webcenter/portalapp/pagehierarchy/Page27.jspx?subject=OSH&indicator=INJ_DAYS_SEX_MIG_NB&datasetCode=A&collectionCode=YI",
                        "title" : "Days lost due to cases of occupational injury with temporary incapacity for work by sex and migrant status",
                        "type" : "data"
                    },
                    {
                        "key" : "https://www.ilo.org/ilostat/faces/oracle/webcenter/portalapp/pagehierarchy/Page27.jspx?subject=OSH&indicator=INJ_DAYS_ECO_NB&datasetCode=A&collectionCode=YI",
                        "title" : "Days lost due to cases of occupational injury with temporary incapacity for work by economic activity",
                        "type" : "data"
                    }
                ]
            },
            {
                "key" : "Occupational injuries -- Fatal",
                "title" : "Occupational injuries -- Fatal",
                "type" : "category",
                "children" : [
                    {
                        "key" : "https://www.ilo.org/ilostat/faces/oracle/webcenter/portalapp/pagehierarchy/Page27.jspx?subject=OSH&indicator=INJ_FATL_SEX_MIG_NB&datasetCode=A&collectionCode=YI",
                        "title" : "Cases of fatal occupational injury by sex and migrant status",
                        "type" : "data"
                    },
                    {
                        "key" : "https://www.ilo.org/ilostat/faces/oracle/webcenter/portalapp/pagehierarchy/Page27.jspx?subject=OSH&indicator=INJ_FATL_ECO_NB&datasetCode=A&collectionCode=YI",
                        "title" : "Cases of fatal occupational injury by economic activity",
                        "type" : "data"
                    },
                    {
                        "key" : "https://www.ilo.org/ilostat/faces/oracle/webcenter/portalapp/pagehierarchy/Page27.jspx?subject=OSH&indicator=INJ_FATL_SEX_MIG_RT&datasetCode=A&collectionCode=YI",
                        "title" : "Fatal occupational injuries per 100'000 workers by sex and migrant status",
                        "type" : "data"
                    },
                    {
                        "key" : "https://www.ilo.org/ilostat/faces/oracle/webcenter/portalapp/pagehierarchy/Page27.jspx?subject=OSH&indicator=INJ_FATL_ECO_RT&datasetCode=A&collectionCode=YI",
                        "title" : "Fatal occupational injuries per 100'000 workers by economic activity",
                        "type" : "data"
                    }
                ]
            },
            {
                "key" : "Occupational injuries -- Non-fatal",
                "title" : "Occupational injuries -- Non-fatal",
                "type" : "category",
                "children" : [
                    {
                        "key" : "https://www.ilo.org/ilostat/faces/oracle/webcenter/portalapp/pagehierarchy/Page27.jspx?subject=OSH&indicator=INJ_NFTL_SEX_MIG_NB&datasetCode=A&collectionCode=YI",
                        "title" : "Cases of non-fatal occupational injury by sex and migrant status",
                        "type" : "data"
                    },
                    {
                        "key" : "https://www.ilo.org/ilostat/faces/oracle/webcenter/portalapp/pagehierarchy/Page27.jspx?subject=OSH&indicator=INJ_NFTL_ECO_NB&datasetCode=A&collectionCode=YI",
                        "title" : "Cases of non-fatal occupational injury by economic activity",
                        "type" : "data"
                    },
                    {
                        "key" : "https://www.ilo.org/ilostat/faces/oracle/webcenter/portalapp/pagehierarchy/Page27.jspx?subject=OSH&indicator=INJ_NFTL_INJ_ECO_NB&datasetCode=A&collectionCode=YI",
                        "title" : "Cases of non-fatal occupational injury by type of incapacity and economic activity",
                        "type" : "data"
                    },
                    {
                        "key" : "https://www.ilo.org/ilostat/faces/oracle/webcenter/portalapp/pagehierarchy/Page27.jspx?subject=OSH&indicator=INJ_NFTL_SEX_INJ_MIG_NB&datasetCode=A&collectionCode=YI",
                        "title" : "Cases of non-fatal occupational injury by sex, type of incapacity and migrant status",
                        "type" : "data"
                    },
                    {
                        "key" : "https://www.ilo.org/ilostat/faces/oracle/webcenter/portalapp/pagehierarchy/Page27.jspx?subject=OSH&indicator=INJ_NFTL_SEX_MIG_RT&datasetCode=A&collectionCode=YI",
                        "title" : "Non-fatal occupational injuries per 100'000 workers by sex and migrant status",
                        "type" : "data"
                    },
                    {
                        "key" : "https://www.ilo.org/ilostat/faces/oracle/webcenter/portalapp/pagehierarchy/Page27.jspx?subject=OSH&indicator=INJ_NFTL_ECO_RT&datasetCode=A&collectionCode=YI",
                        "title" : "Non-fatal occupational injuries per 100'000 workers by economic activity",
                        "type" : "data"
                    }
                ]
            },
            {
                "key" : "Labour inspection",
                "title" : "Labour inspection",
                "type" : "category",
                "children" : [
                    {
                        "key" : "https://www.ilo.org/ilostat/faces/oracle/webcenter/portalapp/pagehierarchy/Page27.jspx?subject=OSH&indicator=LAI_WOPL_NOC_NB&datasetCode=A&collectionCode=YI",
                        "title" : "Registered workplaces that could be selected for labour inspection",
                        "type" : "data"
                    },
                    {
                        "key" : "https://www.ilo.org/ilostat/faces/oracle/webcenter/portalapp/pagehierarchy/Page27.jspx?subject=OSH&indicator=LAI_INSP_SEX_NB&datasetCode=A&collectionCode=YI",
                        "title" : "Number of labour inspectors by sex",
                        "type" : "data"
                    },
                    {
                        "key" : "https://www.ilo.org/ilostat/faces/oracle/webcenter/portalapp/pagehierarchy/Page27.jspx?subject=OSH&indicator=LAI_VIST_NOC_NB&datasetCode=A&collectionCode=YI",
                        "title" : "Number of labour inspection visits to workplaces during the year",
                        "type" : "data"
                    },
                    {
                        "key" : "https://www.ilo.org/ilostat/faces/oracle/webcenter/portalapp/pagehierarchy/Page27.jspx?subject=OSH&indicator=LAI_INDE_NOC_RT&datasetCode=A&collectionCode=YI",
                        "title" : "Inspectors per 10'000 employed persons",
                        "type" : "data"
                    },
                    {
                        "key" : "https://www.ilo.org/ilostat/faces/oracle/webcenter/portalapp/pagehierarchy/Page27.jspx?subject=OSH&indicator=LAI_VDIN_NOC_RT&datasetCode=A&collectionCode=YI",
                        "title" : "visits per inspector",
                        "type" : "data"
                    }
                ]
            }
        ]
    },
    {
        "key" : "Industrial relations",
        "title" : "Industrial relations",
        "type" : "category",
        "children" : [
            {
                "key" : "Trade unions",
                "title" : "Trade unions",
                "type" : "category",
                "children" : [
                    {
                        "key" : "https://www.ilo.org/ilostat/faces/oracle/webcenter/portalapp/pagehierarchy/Page27.jspx?subject=IR&indicator=ILR_TUMT_NOC_RT&datasetCode=A&collectionCode=IR",
                        "title" : "Trade union density rate",
                        "type" : "data"
                    }
                ]
            },
            {
                "key" : "Bargaining",
                "title" : "Bargaining",
                "type" : "category",
                "children" : [
                    {
                        "key" : "https://www.ilo.org/ilostat/faces/oracle/webcenter/portalapp/pagehierarchy/Page27.jspx?subject=IR&indicator=ILR_CBCT_NOC_RT&datasetCode=A&collectionCode=IR",
                        "title" : "Collective bargaining coverage rate",
                        "type" : "data"
                    }
                ]
            },
            {
                "key" : "Strikes and lockouts",
                "title" : "Strikes and lockouts",
                "type" : "category",
                "children" : [
                    {
                        "key" : "https://www.ilo.org/ilostat/faces/oracle/webcenter/portalapp/pagehierarchy/Page27.jspx?subject=IR&indicator=STR_TSTR_ECO_NB&datasetCode=A&collectionCode=YI",
                        "title" : "Number of strikes and lockouts by economic activity",
                        "type" : "data"
                    },
                    {
                        "key" : "https://www.ilo.org/ilostat/faces/oracle/webcenter/portalapp/pagehierarchy/Page27.jspx?subject=IR&indicator=STR_DAYS_ECO_NB&datasetCode=A&collectionCode=YI",
                        "title" : "Days not worked due to strikes and lockouts by economic activity",
                        "type" : "data"
                    },
                    {
                        "key" : "https://www.ilo.org/ilostat/faces/oracle/webcenter/portalapp/pagehierarchy/Page27.jspx?subject=IR&indicator=STR_WORK_ECO_NB&datasetCode=A&collectionCode=YI",
                        "title" : "Workers involved in strikes and lockouts by economic activity",
                        "type" : "data"
                    },
                    {
                        "key" : "https://www.ilo.org/ilostat/faces/oracle/webcenter/portalapp/pagehierarchy/Page27.jspx?subject=IR&indicator=STR_DAYS_ECO_RT&datasetCode=A&collectionCode=YI",
                        "title" : "Days not worked per 1000 workers due to strikes and lockouts by economic activity",
                        "type" : "data"
                    }
                ]
            }
        ]
    },
    {
        "key" : "Labour migration",
        "title" : "Labour migration",
        "type" : "category",
        "children" : [
            {
                "key" : "International migrant stock",
                "title" : "International migrant stock",
                "type" : "category",
                "children" : [
                    {
                        "key" : "https://www.ilo.org/ilostat/faces/oracle/webcenter/portalapp/pagehierarchy/Page27.jspx?subject=MIG&indicator=MST_TPOP_SEX_MIG_NB&datasetCode=A&collectionCode=ILMS",
                        "title" : "Resident population by sex, total and migrants",
                        "type" : "data"
                    },
                    {
                        "key" : "https://www.ilo.org/ilostat/faces/oracle/webcenter/portalapp/pagehierarchy/Page27.jspx?subject=MIG&indicator=MST_XWAP_SEX_EDU_MIG_NB&datasetCode=A&collectionCode=ILMS",
                        "title" : "Working-age population by sex and education, total and migrants",
                        "type" : "data"
                    },
                    {
                        "key" : "https://www.ilo.org/ilostat/faces/oracle/webcenter/portalapp/pagehierarchy/Page27.jspx?subject=MIG&indicator=MST_XWAP_SEX_MIG_NB&datasetCode=A&collectionCode=ILMS",
                        "title" : "Working-age population by sex, total and migrants",
                        "type" : "data"
                    },
                    {
                        "key" : "https://www.ilo.org/ilostat/faces/oracle/webcenter/portalapp/pagehierarchy/Page27.jspx?subject=MIG&indicator=MST_TPOP_COU_NB&datasetCode=A&collectionCode=ILMS",
                        "title" : "Migrants by country of origin",
                        "type" : "data"
                    },
                    {
                        "key" : "https://www.ilo.org/ilostat/faces/oracle/webcenter/portalapp/pagehierarchy/Page27.jspx?subject=MIG&indicator=MST_TEAP_SEX_AGE_MIG_NB&datasetCode=A&collectionCode=ILMS",
                        "title" : "Labour force by sex and age, total and migrants",
                        "type" : "data"
                    },
                    {
                        "key" : "https://www.ilo.org/ilostat/faces/oracle/webcenter/portalapp/pagehierarchy/Page27.jspx?subject=MIG&indicator=MST_TEMP_SEX_AGE_MIG_NB&datasetCode=A&collectionCode=ILMS",
                        "title" : "Employment by sex and age, total and migrants",
                        "type" : "data"
                    },
                    {
                        "key" : "https://www.ilo.org/ilostat/faces/oracle/webcenter/portalapp/pagehierarchy/Page27.jspx?subject=MIG&indicator=MST_TEMP_SEX_STE_MIG_NB&datasetCode=A&collectionCode=ILMS",
                        "title" : "Employment by sex and status in employment, total and migrants",
                        "type" : "data"
                    },
                    {
                        "key" : "https://www.ilo.org/ilostat/faces/oracle/webcenter/portalapp/pagehierarchy/Page27.jspx?subject=MIG&indicator=MST_TEMP_ECO_MIG_NB&datasetCode=A&collectionCode=ILMS",
                        "title" : "Employment by economic activity, total and migrants",
                        "type" : "data"
                    },
                    {
                        "key" : "https://www.ilo.org/ilostat/faces/oracle/webcenter/portalapp/pagehierarchy/Page27.jspx?subject=MIG&indicator=MST_TEMP_OCU_MIG_NB&datasetCode=A&collectionCode=ILMS",
                        "title" : "Employment by occupation, total and migrants",
                        "type" : "data"
                    },
                    {
                        "key" : "https://www.ilo.org/ilostat/faces/oracle/webcenter/portalapp/pagehierarchy/Page27.jspx?subject=MIG&indicator=MST_MEMP_COU_NB&datasetCode=A&collectionCode=ILMS",
                        "title" : "Employed migrants by country of origin",
                        "type" : "data"
                    },
                    {
                        "key" : "https://www.ilo.org/ilostat/faces/oracle/webcenter/portalapp/pagehierarchy/Page27.jspx?subject=MIG&indicator=MST_EARA_SEX_MIG_NB&datasetCode=A&collectionCode=ILMS",
                        "title" : "Mean monthly employment-related income of employed persons by sex, total and migrants",
                        "type" : "data"
                    },
                    {
                        "key" : "https://www.ilo.org/ilostat/faces/oracle/webcenter/portalapp/pagehierarchy/Page27.jspx?subject=MIG&indicator=MST_EARB_SEX_MIG_NB&datasetCode=A&collectionCode=ILMS",
                        "title" : "Median monthly employment-related income of employed persons by sex, total and migrants",
                        "type" : "data"
                    }
                ]
            },
            {
                "key" : "International migrant flow",
                "title" : "International migrant flow",
                "type" : "category",
                "children" : [
                    {
                        "key" : "https://www.ilo.org/ilostat/faces/oracle/webcenter/portalapp/pagehierarchy/Page27.jspx?subject=MIG&indicator=MFL_XWAP_SEX_EDU_NB&datasetCode=A&collectionCode=ILMS",
                        "title" : "Inflow of working-age migrants by sex and education",
                        "type" : "data"
                    },
                    {
                        "key" : "https://www.ilo.org/ilostat/faces/oracle/webcenter/portalapp/pagehierarchy/Page27.jspx?subject=MIG&indicator=MFL_TPOP_SEX_COU_NB&datasetCode=A&collectionCode=ILMS",
                        "title" : "Inflow of migrants by sex and country of origin",
                        "type" : "data"
                    },
                    {
                        "key" : "https://www.ilo.org/ilostat/faces/oracle/webcenter/portalapp/pagehierarchy/Page27.jspx?subject=MIG&indicator=MFL_TEMP_ECO_NB&datasetCode=A&collectionCode=ILMS",
                        "title" : "Inflow of employed migrants by economic activity",
                        "type" : "data"
                    },
                    {
                        "key" : "https://www.ilo.org/ilostat/faces/oracle/webcenter/portalapp/pagehierarchy/Page27.jspx?subject=MIG&indicator=MFL_TEMP_OCU_NB&datasetCode=A&collectionCode=ILMS",
                        "title" : "Inflow of employed migrants by occupation",
                        "type" : "data"
                    }
                ]
            }
        ]
    },
    {
        "key" : "Consumer prices",
        "title" : "Consumer prices",
        "type" : "category",
        "children" : [
            {
                "key" : "National CPI",
                "title" : "National CPI",
                "type" : "category",
                "children" : [
                    {
                        "key" : "https://www.ilo.org/ilostat/faces/oracle/webcenter/portalapp/pagehierarchy/Page27.jspx?subject=CPI&indicator=CPI_NCYR_COI_RT&datasetCode=A&collectionCode=YI",
                        "title" : "National consumer price index (CPI) by COICOP, percentage change from previous year",
                        "type" : "data"
                    },
                    {
                        "key" : "https://www.ilo.org/ilostat/faces/oracle/webcenter/portalapp/pagehierarchy/Page27.jspx?subject=CPI&indicator=CPI_NWGT_COI_DT&datasetCode=A&collectionCode=YI",
                        "title" : "National consumer price index (CPI) by COICOP, country weights",
                        "type" : "data"
                    }
                ]
            }
        ]
    }
]