{
  "title": "SOENDA",
  "company": {
    "name": "SOENDA",
    "description": "Service Oriented Enterprise Data Analytics",
    "address": "PH.H. Mustofa Surapati Core K-18 Bandung, West Java 40192",
    "contact": "(+6222) 87241349",
    "email": "admin@saranaprimadata.co.id",
    "social": {
      "youtube": "https://www.youtube.com/user/BankIndonesiaChannel",
      "twitter": "https://twitter.com/bank_indonesia?lang=en",
      "facebook": "https://id-id.facebook.com/BankIndonesiaOfficial/",
      "instagram": "https://www.instagram.com/bank_indonesia/",
      "playstore": "https://play.google.com/store/apps/details?id=com.bi.mobile&hl=en",
      "appstore": "https://itunes.apple.com/id/app/bi-mobile/id1198899727?mt=8"
    }
  },
  "links": {
    "internal-portal": {
      "name": "Registered Publication System",
      "url": "http://localhost:3003"
    },
    "dashboard-executive": {
      "name": "Executive Information System",
      "url": "http://localhost"
    },
    "data-analytic": {
      "name": "Data Analyst Information System",
      "url": "http://localhost"
    },
    "geoanalytic": {
      "name": "Geospatial Analytic",
      "url": "http://localhost"
    },
    "data-scientist": {
      "name": "Data Scientist Information System",
      "url": "http://localhost"
    },
    "admin": {
      "name": "Administrator",
      "url": "http://localhost:3002"
    }
  },
  "other_links": [
    {"name": "Property", "url": "http://localhost"},
    {"name": "2017 Investment Timeout", "url": "http://localhost"},
    {"name": "2018 Investment Timeout", "url": "http://localhost"},
    {"name": "Contracts", "url": "http://localhost"}
  ]
}
